StartFontMetrics 2.0
Comment Generated by FontForge 20080430
Comment Creation Date: Fri Jul 11 21:36:33 2008
FontName TJPBordersLight
FullName TJP Borders Light
FamilyName TJP Borders Light
Weight Light
Notice (Copyright (c) 2006-2008, T. J. Pinkert)
Comment (t.j.pinkert@alumnus.utwente.nl)
ItalicAngle 0
IsFixedPitch true
UnderlinePosition -100
UnderlineThickness 50
Version 001.000
EncodingScheme iso8859-15
FontBBox 0 -200 1200 1000
XHeight 990
StartCharMetrics 45
C 32 ; WX 1200 ; N space ; B 0 0 0 0 ;
C 46 ; WX 1200 ; N period ; B 0 -200 1200 1000 ;
C 62 ; WX 1200 ; N greater ; B 0 -200 1200 1000 ;
C 65 ; WX 1200 ; N A ; B 660 -200 1190 1000 ;
C 66 ; WX 1200 ; N B ; B 0 480 1200 1000 ;
C 67 ; WX 1200 ; N C ; B 0 480 520 1000 ;
C 68 ; WX 1200 ; N D ; B 10 -200 540 1000 ;
C 69 ; WX 1200 ; N E ; B 0 -200 520 320 ;
C 70 ; WX 1200 ; N F ; B 680 -200 1200 1000 ;
C 71 ; WX 1200 ; N G ; B 0 -200 1200 1000 ;
C 72 ; WX 1200 ; N H ; B 0 -200 520 1000 ;
C 77 ; WX 1200 ; N M ; B 0 -200 1200 1000 ;
C 78 ; WX 1200 ; N N ; B 0 -200 1200 1000 ;
C 79 ; WX 1200 ; N O ; B 0 -200 1200 1000 ;
C 81 ; WX 1200 ; N Q ; B 680 -200 1200 320 ;
C 82 ; WX 1200 ; N R ; B 0 -200 1200 1000 ;
C 83 ; WX 1200 ; N S ; B 0 -200 1200 1000 ;
C 84 ; WX 1200 ; N T ; B 0 -200 1200 320 ;
C 85 ; WX 1200 ; N U ; B 0 -200 1200 1000 ;
C 86 ; WX 1200 ; N V ; B 0 -200 1200 1000 ;
C 87 ; WX 1200 ; N W ; B 0 -190 1200 340 ;
C 88 ; WX 1200 ; N X ; B 0 460 1200 990 ;
C 89 ; WX 1200 ; N Y ; B 0 -200 1200 1000 ;
C 90 ; WX 1200 ; N Z ; B 680 480 1200 1000 ;
C 97 ; WX 1200 ; N a ; B 680 -200 1190 1000 ;
C 98 ; WX 1200 ; N b ; B 0 480 1200 1000 ;
C 99 ; WX 1200 ; N c ; B 0 480 520 1000 ;
C 100 ; WX 1200 ; N d ; B 10 -200 520 1000 ;
C 101 ; WX 1200 ; N e ; B 0 -200 520 320 ;
C 102 ; WX 1200 ; N f ; B 680 -200 1200 1000 ;
C 103 ; WX 1200 ; N g ; B 0 -200 1200 1000 ;
C 104 ; WX 1200 ; N h ; B 0 -200 520 1000 ;
C 109 ; WX 1200 ; N m ; B 0 -200 1200 1000 ;
C 110 ; WX 1200 ; N n ; B 0 -200 1200 1000 ;
C 111 ; WX 1200 ; N o ; B 0 -200 1200 1000 ;
C 113 ; WX 1200 ; N q ; B 680 -200 1200 320 ;
C 114 ; WX 1200 ; N r ; B 0 -200 1200 1000 ;
C 115 ; WX 1200 ; N s ; B 0 -200 1200 1000 ;
C 116 ; WX 1200 ; N t ; B 0 -200 1200 320 ;
C 117 ; WX 1200 ; N u ; B 0 -200 1200 1000 ;
C 118 ; WX 1200 ; N v ; B 0 -200 1200 1000 ;
C 119 ; WX 1200 ; N w ; B 0 -190 1200 320 ;
C 120 ; WX 1200 ; N x ; B 0 480 1200 990 ;
C 121 ; WX 1200 ; N y ; B 0 -200 1200 1000 ;
C 122 ; WX 1200 ; N z ; B 680 480 1200 1000 ;
EndCharMetrics
EndFontMetrics
